…
```r
superhero_info
```

```
## # A tibble: 734 × 10
##    name  gender eye_color race  hair_color height publisher skin_color alignment
##    <chr> <chr>  <chr>     <chr> <chr>       <dbl> <chr>     <chr>      <chr>    
##  1 A-Bo… Male   yellow    Human No Hair       203 Marvel C… -          good     
##  2 Abe … Male   blue      Icth… No Hair       191 Dark Hor… blue       good     
##  3 Abin… Male   blue      Unga… No Hair       185 DC Comics red        good     
##  4 Abom… Male   green     Huma… No Hair       203 Marvel C… -          bad      
##  5 Abra… Male   blue      Cosm… Black         -99 Marvel C… -          bad      
##  6 Abso… Male   blue      Human No Hair       193 Marvel C… -          bad      
##  7 Adam… Male   blue      -     Blond         -99 NBC - He… -          good     
##  8 Adam… Male   blue      Human Blond         185 DC Comics -          good     
##  9 Agen… Female blue      -     Blond         173 Marvel C… -          good     
## 10 Agen… Male   brown     Human Brown         178 Marvel C… -          good     
## # ℹ 724 more rows
## # ℹ 1 more variable: weight <dbl>
```
…
2. Notice that we have some neutral superheros! Who are they? List their names below.  


```r
superhero_info %>%
  filter(alignment == "neutral") %>% 
  select(name, alignment)
```

```
## # A tibble: 24 × 2
##    name         alignment
##    <chr>        <chr>    
##  1 Bizarro      neutral  
##  2 Black Flash  neutral  
##  3 Captain Cold neutral  
##  4 Copycat      neutral  
##  5 Deadpool     neutral  
##  6 Deathstroke  neutral  
##  7 Etrigan      neutral  
##  8 Galactus     neutral  
##  9 Gladiator    neutral  
## 10 Indigo       neutral  
## # ℹ 14 more rows
```


## `superhero_info`
3. Let's say we are only interested in the variables name, alignment, and "race". How would you isolate these variables from `superhero_info`?

```r
superhero_info %>% 
  select(name,alignment, race)
```

```
## # A tibble: 734 × 3
##    name          alignment race             
##    <chr>         <chr>     <chr>            
##  1 A-Bomb        good      Human            
##  2 Abe Sapien    good      Icthyo Sapien    
##  3 Abin Sur      good      Ungaran          
##  4 Abomination   bad       Human / Radiation
##  5 Abraxas       bad       Cosmic Entity    
##  6 Absorbing Man bad       Human            
##  7 Adam Monroe   good      -                
##  8 Adam Strange  good      Human            
##  9 Agent 13      good      -                
## 10 Agent Bob     good      Human            
## # ℹ 724 more rows
```

## Not Human
4. List all of the superheros that are not human.


```r
filter(superhero_info, race != "Human")
```

```
## # A tibble: 526 × 10
##    name  gender eye_color race  hair_color height publisher skin_color alignment
##    <chr> <chr>  <chr>     <chr> <chr>       <dbl> <chr>     <chr>      <chr>    
##  1 Abe … Male   blue      Icth… No Hair       191 Dark Hor… blue       good     
##  2 Abin… Male   blue      Unga… No Hair       185 DC Comics red        good     
##  3 Abom… Male   green     Huma… No Hair       203 Marvel C… -          bad      
##  4 Abra… Male   blue      Cosm… Black         -99 Marvel C… -          bad      
##  5 Adam… Male   blue      -     Blond         -99 NBC - He… -          good     
##  6 Agen… Female blue      -     Blond         173 Marvel C… -          good     
##  7 Agen… Male   -         -     -             191 Marvel C… -          good     
##  8 Air-… Male   blue      -     White         188 Marvel C… -          bad      
##  9 Ajax  Male   brown     Cybo… Black         193 Marvel C… -          bad      
## 10 Alan… Male   blue      -     Blond         180 DC Comics -          good     
## # ℹ 516 more rows
## # ℹ 1 more variable: weight <dbl>
```
…
10. Let's explore who the really small superheros are. In the `superhero_info` data, which have a weight less than 50? Be sure to sort your results by weight lowest to highest.  

```r
superhero_info %>%
  select(name,weight) %>%
  mutate(weight_new = ifelse(weight == -99, NA, weight)) %>%
   filter(weight < 50) %>%
  arrange(weight)
```

```
## # A tibble: 256 × 3
##    name             weight weight_new
##    <chr>             <dbl>      <dbl>
##  1 Abraxas             -99         NA
##  2 Adam Monroe         -99         NA
##  3 Alex Mercer         -99         NA
##  4 Alex Woolsly        -99         NA
##  5 Allan Quatermain    -99         NA
##  6 Ando Masahashi      -99         NA
##  7 Angel               -99         NA
##  8 Angela              -99         NA
##  9 Anti-Monitor        -99         NA
## 10 Anti-Spawn          -99         NA
## # ℹ 246 more rows
```

11. Let's make a new variable that is the ratio of height to weight. Call this variable `height_weight_ratio`.  


```r
height_weight_ration <- select(superhero_info, "name", "height", "weight")
height_weight_ration$ratio <- height_weight_ration$weight/height_weight_ration$height
height_weight_ration
```

```
## # A tibble: 734 × 4
##    name          height weight ratio
##    <chr>          <dbl>  <dbl> <dbl>
##  1 A-Bomb           203    441 2.17 
##  2 Abe Sapien       191     65 0.340
##  3 Abin Sur         185     90 0.486
##  4 Abomination      203    441 2.17 
##  5 Abraxas          -99    -99 1    
##  6 Absorbing Man    193    122 0.632
##  7 Adam Monroe      -99    -99 1    
##  8 Adam Strange     185     88 0.476
##  9 Agent 13         173     61 0.353
## 10 Agent Bob        178     81 0.455
## # ℹ 724 more rows
```


12. Who has the highest height to weight ratio?  


```r
height_weight_ration %>% 
  arrange(desc(ratio))
```

```
## # A tibble: 734 × 4
##    name        height weight ratio
##    <chr>        <dbl>  <dbl> <dbl>
##  1 Giganta       62.5    630 10.1 
##  2 Utgard-Loki   15.2     58  3.82
##  3 Darkseid     267      817  3.06
##  4 Juggernaut   287      855  2.98
##  5 Red Hulk     213      630  2.96
##  6 Sasquatch    305      900  2.95
##  7 Hulk         244      630  2.58
##  8 Bloodaxe     218      495  2.27
##  9 Thanos       201      443  2.20
## 10 A-Bomb       203      441  2.17
## # ℹ 724 more rows
```
…
