…
fisheries_tidy$catch <- as.numeric(fisheries_tidy$catch)
fisheries_tidy
```

```
## # A tibble: 376,771 × 10
##    country common_name               isscaap_group_number isscaap_taxonomic_gr…¹
##    <fct>   <chr>                     <fct>                <chr>                 
##  1 Albania Angelsharks, sand devils… 38                   Sharks, rays, chimaer…
##  2 Albania Angelsharks, sand devils… 38                   Sharks, rays, chimaer…
##  3 Albania Angelsharks, sand devils… 38                   Sharks, rays, chimaer…
##  4 Albania Angelsharks, sand devils… 38                   Sharks, rays, chimaer…
##  5 Albania Angelsharks, sand devils… 38                   Sharks, rays, chimaer…
##  6 Albania Angelsharks, sand devils… 38                   Sharks, rays, chimaer…
##  7 Albania Angelsharks, sand devils… 38                   Sharks, rays, chimaer…
##  8 Albania Angelsharks, sand devils… 38                   Sharks, rays, chimaer…
##  9 Albania Angelsharks, sand devils… 38                   Sharks, rays, chimaer…
## 10 Albania Angelsharks, sand devils… 38                   Sharks, rays, chimaer…
## # ℹ 376,761 more rows
## # ℹ abbreviated name: ¹​isscaap_taxonomic_group
## # ℹ 6 more variables: asfis_species_number <fct>, asfis_species_name <chr>,
## #   fao_major_fishing_area <fct>, measure <chr>, year <dbl>, catch <dbl>
```
…
```r
focus_data <- fisheries_tidy %>% 
  select(country,isscaap_taxonomic_group,asfis_species_name,asfis_species_number,year,catch)
focus_data
```

```
## # A tibble: 376,771 × 6
##    country isscaap_taxonomic_group asfis_species_name asfis_species_number  year
##    <fct>   <chr>                   <chr>              <fct>                <dbl>
##  1 Albania Sharks, rays, chimaeras Squatinidae        10903XXXXX            1995
##  2 Albania Sharks, rays, chimaeras Squatinidae        10903XXXXX            1996
##  3 Albania Sharks, rays, chimaeras Squatinidae        10903XXXXX            1997
##  4 Albania Sharks, rays, chimaeras Squatinidae        10903XXXXX            1998
##  5 Albania Sharks, rays, chimaeras Squatinidae        10903XXXXX            1999
##  6 Albania Sharks, rays, chimaeras Squatinidae        10903XXXXX            2000
##  7 Albania Sharks, rays, chimaeras Squatinidae        10903XXXXX            2001
##  8 Albania Sharks, rays, chimaeras Squatinidae        10903XXXXX            2002
##  9 Albania Sharks, rays, chimaeras Squatinidae        10903XXXXX            2003
## 10 Albania Sharks, rays, chimaeras Squatinidae        10903XXXXX            2004
## # ℹ 376,761 more rows
## # ℹ 1 more variable: catch <dbl>
```
…
6. Which country had the largest overall catch in the year 2000?

```r
fisheries_tidy%>%
  filter(year==2000)%>%
  group_by(country)%>%
  summarize(overall_catch_2000=sum(catch, na.rm=T))%>%
  arrange(desc(overall_catch_2000))
```

```
## # A tibble: 193 × 2
##    country                  overall_catch_2000
##    <fct>                                 <dbl>
##  1 China                                 25899
##  2 Russian Federation                    12181
##  3 United States of America              11762
##  4 Japan                                  8510
##  5 Indonesia                              8341
##  6 Peru                                   7443
##  7 Chile                                  6906
##  8 India                                  6351
##  9 Thailand                               6243
## 10 Korea, Republic of                     6124
## # ℹ 183 more rows
```

7. Which country caught the most sardines (_Sardina pilchardus_) between the years 1990-2000?

```r
fisheries_tidy %>%
  filter( asfis_species_name == "Sardina pilchardus") %>%
  filter( year %in% c(1990,2000) ) %>%
  group_by(country) %>%
  summarize(sardines_catch_90_00=sum(catch, na.rm = T)) %>%
  arrange(desc(sardines_catch_90_00))
```

```
## # A tibble: 32 × 2
##    country            sardines_catch_90_00
##    <fct>                             <dbl>
##  1 Morocco                            1733
##  2 Spain                               737
##  3 Ukraine                             351
##  4 Portugal                            257
##  5 Russian Federation                  203
##  6 France                              165
##  7 Greece                               79
##  8 Algeria                              77
##  9 Yugoslavia SFR                       69
## 10 Lithuania                            64
## # ℹ 22 more rows
```

8. Which five countries caught the most cephalopods between 2008-2012?

```r
fisheries_tidy %>%
  filter( isscaap_taxonomic_group == "Squids, cuttlefishes, octopuses") %>%
  filter( year %in% c(2008,2012) ) %>%
  group_by(country) %>%
  summarize(cephalopods_catch_2008_2012=sum(catch, na.rm = T)) %>%
  arrange(desc(cephalopods_catch_2008_2012))
```

```
## # A tibble: 121 × 2
##    country                  cephalopods_catch_2008_2012
##    <fct>                                          <dbl>
##  1 China                                           3616
##  2 Korea, Republic of                              1832
##  3 Chile                                           1635
##  4 Indonesia                                       1180
##  5 Peru                                             971
##  6 Taiwan Province of China                         963
##  7 Japan                                            864
##  8 Argentina                                        618
##  9 France                                           593
## 10 Spain                                            576
## # ℹ 111 more rows
```
 Country:32, 97, 31, 84 and 140
9. Which species had the highest catch total between 2008-2012? (hint: Osteichthyes is not a species)

```r
fisheries_tidy %>%
  filter( year %in% c(2008,2012) ) %>%
  filter( asfis_species_name != "Osteichthyes" ) %>%
  group_by(asfis_species_name)%>%
summarize(total_catch_08_12=sum(catch, na.rm = T)) %>%
  arrange(desc(total_catch_08_12))
```

```
## # A tibble: 1,438 × 2
##    asfis_species_name    total_catch_08_12
##    <chr>                             <dbl>
##  1 Engraulis ringens                 22550
##  2 Theragra chalcogramma             20461
##  3 Katsuwonus pelamis                13846
##  4 Clupea harengus                   13647
##  5 Trichiurus lepturus               10745
##  6 Thunnus albacares                  7786
##  7 Scomber japonicus                  5677
##  8 Natantia                           5024
##  9 Gadus morhua                       4869
## 10 Thunnus alalunga                   4798
## # ℹ 1,428 more rows
```
…
